{
    "screen_width":3,
    "screen_height":4,
    "frames":[
    {
        "index":0,
        "start_x":0,
        "start_y":0,
        "width":3,
        "height":1,
        "content":"doc2doc/index.php/user/geo_location",
        "content_type":"map"
    },
    {
        "index":1,
        "start_x":0,
        "start_y":1,
        "width":1,
        "height":1,
        "content":"http://www.facebook.com",
        "content_type":"web"
    }
    ]
}